^C:\USERS\LENOVO\SOURCE\REPOS\PROJECT19\PROJECT19\LIST.CPP|C:\USERS\LENOVO\SOURCE\REPOS\PROJECT19\PROJECT19\SOURCE.CPP|C:\USERS\LENOVO\SOURCE\REPOS\PROJECT19\PROJECT19\SQUARELIST.CPP
C:\USERS\LENOVO\SOURCE\REPOS\PROJECT19\PROJECT19\DEBUG\VC141.PDB
C:\USERS\LENOVO\SOURCE\REPOS\PROJECT19\PROJECT19\DEBUG\VC141.IDB
C:\USERS\LENOVO\SOURCE\REPOS\PROJECT19\PROJECT19\DEBUG\LIST.OBJ
C:\USERS\LENOVO\SOURCE\REPOS\PROJECT19\PROJECT19\DEBUG\SOURCE.OBJ
C:\USERS\LENOVO\SOURCE\REPOS\PROJECT19\PROJECT19\DEBUG\SQUARELIST.OBJ
^C:\USERS\LENOVO\SOURCE\REPOS\PROJECT19\PROJECT19\LIST.CPP
C:\USERS\LENOVO\SOURCE\REPOS\PROJECT19\PROJECT19\DEBUG\VC141.PDB
C:\USERS\LENOVO\SOURCE\REPOS\PROJECT19\PROJECT19\DEBUG\VC141.IDB
C:\USERS\LENOVO\SOURCE\REPOS\PROJECT19\PROJECT19\DEBUG\LIST.OBJ
^C:\USERS\LENOVO\SOURCE\REPOS\PROJECT19\PROJECT19\SOURCE.CPP
C:\USERS\LENOVO\SOURCE\REPOS\PROJECT19\PROJECT19\DEBUG\VC141.PDB
C:\USERS\LENOVO\SOURCE\REPOS\PROJECT19\PROJECT19\DEBUG\VC141.IDB
C:\USERS\LENOVO\SOURCE\REPOS\PROJECT19\PROJECT19\DEBUG\SOURCE.OBJ
^C:\USERS\LENOVO\SOURCE\REPOS\PROJECT19\PROJECT19\SQUARELIST.CPP
C:\USERS\LENOVO\SOURCE\REPOS\PROJECT19\PROJECT19\DEBUG\VC141.PDB
C:\USERS\LENOVO\SOURCE\REPOS\PROJECT19\PROJECT19\DEBUG\VC141.IDB
C:\USERS\LENOVO\SOURCE\REPOS\PROJECT19\PROJECT19\DEBUG\SQUARELIST.OBJ
^C:\USERS\LENOVO\SOURCE\REPOS\PROJECT19\PROJECT19\SOURCE.CPP|C:\USERS\LENOVO\SOURCE\REPOS\PROJECT19\PROJECT19\SQUARELIST.CPP
C:\USERS\LENOVO\SOURCE\REPOS\PROJECT19\PROJECT19\DEBUG\VC141.PDB
C:\USERS\LENOVO\SOURCE\REPOS\PROJECT19\PROJECT19\DEBUG\VC141.IDB
C:\USERS\LENOVO\SOURCE\REPOS\PROJECT19\PROJECT19\DEBUG\SOURCE.OBJ
C:\USERS\LENOVO\SOURCE\REPOS\PROJECT19\PROJECT19\DEBUG\SQUARELIST.OBJ
^C:\USERS\LENOVO\SOURCE\REPOS\PROJECT19\PROJECT19\SOURCE.CPP|C:\USERS\LENOVO\SOURCE\REPOS\PROJECT19\PROJECT19\SQUARELIST.CPP|C:\USERS\LENOVO\SOURCE\REPOS\PROJECT19\PROJECT19\TRIANGLELIST.CPP
C:\USERS\LENOVO\SOURCE\REPOS\PROJECT19\PROJECT19\DEBUG\VC141.PDB
C:\USERS\LENOVO\SOURCE\REPOS\PROJECT19\PROJECT19\DEBUG\VC141.IDB
C:\USERS\LENOVO\SOURCE\REPOS\PROJECT19\PROJECT19\DEBUG\SOURCE.OBJ
C:\USERS\LENOVO\SOURCE\REPOS\PROJECT19\PROJECT19\DEBUG\SQUARELIST.OBJ
C:\USERS\LENOVO\SOURCE\REPOS\PROJECT19\PROJECT19\DEBUG\TRIANGLELIST.OBJ
^C:\USERS\LENOVO\SOURCE\REPOS\PROJECT19\PROJECT19\TRIANGLELIST.CPP
C:\USERS\LENOVO\SOURCE\REPOS\PROJECT19\PROJECT19\DEBUG\VC141.PDB
C:\USERS\LENOVO\SOURCE\REPOS\PROJECT19\PROJECT19\DEBUG\VC141.IDB
C:\USERS\LENOVO\SOURCE\REPOS\PROJECT19\PROJECT19\DEBUG\TRIANGLELIST.OBJ
^C:\USERS\LENOVO\SOURCE\REPOS\PROJECT19\PROJECT19\RECTANGLELIST.CPP|C:\USERS\LENOVO\SOURCE\REPOS\PROJECT19\PROJECT19\SOURCE.CPP
C:\USERS\LENOVO\SOURCE\REPOS\PROJECT19\PROJECT19\DEBUG\VC141.PDB
C:\USERS\LENOVO\SOURCE\REPOS\PROJECT19\PROJECT19\DEBUG\VC141.IDB
C:\USERS\LENOVO\SOURCE\REPOS\PROJECT19\PROJECT19\DEBUG\RECTANGLELIST.OBJ
C:\USERS\LENOVO\SOURCE\REPOS\PROJECT19\PROJECT19\DEBUG\SOURCE.OBJ
^C:\USERS\LENOVO\SOURCE\REPOS\PROJECT19\PROJECT19\RECTANGLELIST.CPP
C:\USERS\LENOVO\SOURCE\REPOS\PROJECT19\PROJECT19\DEBUG\VC141.PDB
C:\USERS\LENOVO\SOURCE\REPOS\PROJECT19\PROJECT19\DEBUG\VC141.IDB
C:\USERS\LENOVO\SOURCE\REPOS\PROJECT19\PROJECT19\DEBUG\RECTANGLELIST.OBJ
^C:\USERS\LENOVO\SOURCE\REPOS\PROJECT19\PROJECT19\RECTANGLELIST.CPP|C:\USERS\LENOVO\SOURCE\REPOS\PROJECT19\PROJECT19\SQUARELIST.CPP
C:\USERS\LENOVO\SOURCE\REPOS\PROJECT19\PROJECT19\DEBUG\VC141.PDB
C:\USERS\LENOVO\SOURCE\REPOS\PROJECT19\PROJECT19\DEBUG\VC141.IDB
C:\USERS\LENOVO\SOURCE\REPOS\PROJECT19\PROJECT19\DEBUG\RECTANGLELIST.OBJ
C:\USERS\LENOVO\SOURCE\REPOS\PROJECT19\PROJECT19\DEBUG\SQUARELIST.OBJ
^C:\USERS\LENOVO\SOURCE\REPOS\PROJECT19\PROJECT19\LIST.CPP|C:\USERS\LENOVO\SOURCE\REPOS\PROJECT19\PROJECT19\RECTANGLELIST.CPP|C:\USERS\LENOVO\SOURCE\REPOS\PROJECT19\PROJECT19\SOURCE.CPP|C:\USERS\LENOVO\SOURCE\REPOS\PROJECT19\PROJECT19\SQUARELIST.CPP|C:\USERS\LENOVO\SOURCE\REPOS\PROJECT19\PROJECT19\TRIANGLELIST.CPP
C:\USERS\LENOVO\SOURCE\REPOS\PROJECT19\PROJECT19\DEBUG\VC141.PDB
C:\USERS\LENOVO\SOURCE\REPOS\PROJECT19\PROJECT19\DEBUG\VC141.IDB
C:\USERS\LENOVO\SOURCE\REPOS\PROJECT19\PROJECT19\DEBUG\SOURCE.OBJ
C:\USERS\LENOVO\SOURCE\REPOS\PROJECT19\PROJECT19\DEBUG\RECTANGLELIST.OBJ
C:\USERS\LENOVO\SOURCE\REPOS\PROJECT19\PROJECT19\DEBUG\LIST.OBJ
C:\USERS\LENOVO\SOURCE\REPOS\PROJECT19\PROJECT19\DEBUG\SQUARELIST.OBJ
^C:\USERS\LENOVO\SOURCE\REPOS\PROJECT19\PROJECT19\LIST.CPP|C:\USERS\LENOVO\SOURCE\REPOS\PROJECT19\PROJECT19\RECTANGLELIST.CPP|C:\USERS\LENOVO\SOURCE\REPOS\PROJECT19\PROJECT19\SQUARELIST.CPP|C:\USERS\LENOVO\SOURCE\REPOS\PROJECT19\PROJECT19\TRIANGLELIST.CPP
C:\USERS\LENOVO\SOURCE\REPOS\PROJECT19\PROJECT19\DEBUG\VC141.PDB
C:\USERS\LENOVO\SOURCE\REPOS\PROJECT19\PROJECT19\DEBUG\VC141.IDB
C:\USERS\LENOVO\SOURCE\REPOS\PROJECT19\PROJECT19\DEBUG\TRIANGLELIST.OBJ
^C:\USERS\LENOVO\SOURCE\REPOS\PROJECT19\PROJECT19\LIST.CPP|C:\USERS\LENOVO\SOURCE\REPOS\PROJECT19\PROJECT19\RECTANGLELIST.CPP|C:\USERS\LENOVO\SOURCE\REPOS\PROJECT19\PROJECT19\SQUARELIST.CPP
C:\USERS\LENOVO\SOURCE\REPOS\PROJECT19\PROJECT19\DEBUG\VC141.PDB
C:\USERS\LENOVO\SOURCE\REPOS\PROJECT19\PROJECT19\DEBUG\VC141.IDB
C:\USERS\LENOVO\SOURCE\REPOS\PROJECT19\PROJECT19\DEBUG\RECTANGLELIST.OBJ
^C:\USERS\LENOVO\SOURCE\REPOS\PROJECT19\PROJECT19\LIST.CPP|C:\USERS\LENOVO\SOURCE\REPOS\PROJECT19\PROJECT19\SQUARELIST.CPP
C:\USERS\LENOVO\SOURCE\REPOS\PROJECT19\PROJECT19\DEBUG\VC141.PDB
C:\USERS\LENOVO\SOURCE\REPOS\PROJECT19\PROJECT19\DEBUG\VC141.IDB
C:\USERS\LENOVO\SOURCE\REPOS\PROJECT19\PROJECT19\DEBUG\LIST.OBJ
^C:\USERS\LENOVO\SOURCE\REPOS\PROJECT19\PROJECT19\RECTANGLELIST.CPP|C:\USERS\LENOVO\SOURCE\REPOS\PROJECT19\PROJECT19\SOURCE.CPP|C:\USERS\LENOVO\SOURCE\REPOS\PROJECT19\PROJECT19\SQUARELIST.CPP|C:\USERS\LENOVO\SOURCE\REPOS\PROJECT19\PROJECT19\TRIANGLELIST.CPP
C:\USERS\LENOVO\SOURCE\REPOS\PROJECT19\PROJECT19\DEBUG\VC141.PDB
C:\USERS\LENOVO\SOURCE\REPOS\PROJECT19\PROJECT19\DEBUG\VC141.IDB
C:\USERS\LENOVO\SOURCE\REPOS\PROJECT19\PROJECT19\DEBUG\RECTANGLELIST.OBJ
C:\USERS\LENOVO\SOURCE\REPOS\PROJECT19\PROJECT19\DEBUG\SQUARELIST.OBJ
C:\USERS\LENOVO\SOURCE\REPOS\PROJECT19\PROJECT19\DEBUG\TRIANGLELIST.OBJ
^C:\USERS\LENOVO\SOURCE\REPOS\PROJECT19\PROJECT19\SQUARELIST.CPP|C:\USERS\LENOVO\SOURCE\REPOS\PROJECT19\PROJECT19\TRIANGLELIST.CPP
C:\USERS\LENOVO\SOURCE\REPOS\PROJECT19\PROJECT19\DEBUG\VC141.PDB
C:\USERS\LENOVO\SOURCE\REPOS\PROJECT19\PROJECT19\DEBUG\VC141.IDB
C:\USERS\LENOVO\SOURCE\REPOS\PROJECT19\PROJECT19\DEBUG\SQUARELIST.OBJ
C:\USERS\LENOVO\SOURCE\REPOS\PROJECT19\PROJECT19\DEBUG\TRIANGLELIST.OBJ
^C:\USERS\LENOVO\SOURCE\REPOS\PROJECT19\PROJECT19\LIST.CPP|C:\USERS\LENOVO\SOURCE\REPOS\PROJECT19\PROJECT19\RECTANGLELIST.CPP|C:\USERS\LENOVO\SOURCE\REPOS\PROJECT19\PROJECT19\TRIANGLELIST.CPP
C:\USERS\LENOVO\SOURCE\REPOS\PROJECT19\PROJECT19\DEBUG\VC141.PDB
C:\USERS\LENOVO\SOURCE\REPOS\PROJECT19\PROJECT19\DEBUG\VC141.IDB
C:\USERS\LENOVO\SOURCE\REPOS\PROJECT19\PROJECT19\DEBUG\LIST.OBJ
C:\USERS\LENOVO\SOURCE\REPOS\PROJECT19\PROJECT19\DEBUG\RECTANGLELIST.OBJ
C:\USERS\LENOVO\SOURCE\REPOS\PROJECT19\PROJECT19\DEBUG\TRIANGLELIST.OBJ
